<?xml version="1.0" encoding="UTF-8" standalone="no"?>
<!-- Created with Inkscape (http://www.inkscape.org/) -->

<svg
   xmlns:dc="http://purl.org/dc/elements/1.1/"
   xmlns:cc="http://creativecommons.org/ns#"
   xmlns:rdf="http://www.w3.org/1999/02/22-rdf-syntax-ns#"
   xmlns:svg="http://www.w3.org/2000/svg"
   xmlns="http://www.w3.org/2000/svg"
   xmlns:xlink="http://www.w3.org/1999/xlink"
   version="1.1"
   width="40"
   height="40"
   id="svg4339">
  <metadata
     id="metadata4345">
    <rdf:RDF>
      <cc:Work
         rdf:about="">
        <dc:format>image/svg+xml</dc:format>
        <dc:type
           rdf:resource="http://purl.org/dc/dcmitype/StillImage" />
        <dc:title></dc:title>
      </cc:Work>
    </rdf:RDF>
  </metadata>
  <defs
     id="defs4343">
    <linearGradient
       x1="68.275063"
       y1="38.475735"
       x2="68.576752"
       y2="12.377777"
       id="linearGradient3894"
       xlink:href="#linearGradient3888"
       gradientUnits="userSpaceOnUse"
       gradientTransform="matrix(0.90141417,0,0,0.90141417,6.1981483,-2.5526235)" />
    <linearGradient
       id="linearGradient3888">
      <stop
         id="stop3890"
         style="stop-color:#dedede;stop-opacity:1"
         offset="0" />
      <stop
         id="stop3892"
         style="stop-color:#ffffff;stop-opacity:1"
         offset="1" />
    </linearGradient>
    <linearGradient
       x1="63.499641"
       y1="24.552626"
       x2="64.432289"
       y2="37.103771"
       id="linearGradient3874"
       xlink:href="#linearGradient3868"
       gradientUnits="userSpaceOnUse"
       gradientTransform="matrix(0.99541075,0,0,1.4246602,0.02932291,-16.614598)" />
    <linearGradient
       id="linearGradient3868">
      <stop
         id="stop3870"
         style="stop-color:#468a50;stop-opacity:1"
         offset="0" />
      <stop
         id="stop3872"
         style="stop-color:#2e5b35;stop-opacity:1"
         offset="1" />
    </linearGradient>
    <linearGradient
       x1="67.211952"
       y1="38.164433"
       x2="67.437492"
       y2="24.199072"
       id="linearGradient3902"
       xlink:href="#linearGradient3896"
       gradientUnits="userSpaceOnUse"
       gradientTransform="matrix(0.99541075,0,0,1.4246602,0.02932291,-16.614598)" />
    <linearGradient
       id="linearGradient3896">
      <stop
         id="stop3898"
         style="stop-color:#173b19;stop-opacity:1"
         offset="0" />
      <stop
         id="stop3900"
         style="stop-color:#173b19;stop-opacity:0"
         offset="1" />
    </linearGradient>
  </defs>
  <g
     transform="translate(-44.435109,-1.6487247)"
     id="g3978">
    <rect
       width="15.109342"
       height="8.4759722"
       x="57.147102"
       y="5.4107385"
       id="rect3878-7-6-7"
       style="fill:#eeeeee;fill-opacity:1;stroke:#d6d6d6;stroke-width:0.5122205;stroke-miterlimit:4;stroke-opacity:1;stroke-dasharray:none" />
    <path
       d="m 119.67783,76.772354 a 19.003494,3.1819806 0 1 1 -38.006993,0 19.003494,3.1819806 0 1 1 38.006993,0 z"
       transform="matrix(1.0420975,0,0,1,-40.477363,-39.421203)"
       id="path3876"
       style="fill:#000000;fill-opacity:0.25098039;stroke:none" />
    <rect
       width="18.023111"
       height="10.110526"
       x="55.62178"
       y="6.9197354"
       id="rect3878-7-6"
       style="fill:#eeeeee;fill-opacity:1;stroke:#d6d6d6;stroke-width:0.611;stroke-miterlimit:4;stroke-opacity:1;stroke-dasharray:none" />
    <rect
       width="22.201056"
       height="12.454251"
       x="53.416138"
       y="8.8562059"
       id="rect3878-7"
       style="fill:#ebebeb;fill-opacity:1;stroke:#d6d6d6;stroke-width:0.68300003;stroke-miterlimit:4;stroke-opacity:1;stroke-dasharray:none" />
    <rect
       width="26.13324"
       height="14.66011"
       x="51.293922"
       y="11.516307"
       id="rect3878"
       style="fill:url(#linearGradient3894);fill-opacity:1;stroke:#c9c9c9;stroke-width:0.69999999;stroke-miterlimit:4;stroke-opacity:1;stroke-dasharray:none" />
    <path
       d="m 48.893566,19.627134 0,16.970973 30.672129,0 0,-17.180491 -4.467621,-0.146269 -3.811652,7.196427 -13.189032,-0.120726 -4.226513,-6.774352 z"
       id="path3098"
       style="fill:url(#linearGradient3874);fill-opacity:1;stroke:url(#linearGradient3902);stroke-width:1.04587281px;stroke-linecap:butt;stroke-linejoin:miter;stroke-opacity:1" />
    <text
       x="-69.795418"
       y="17.029293"
       transform="scale(-0.92073384,1.0860902)"
       id="text3972"
       xml:space="preserve"
       style="font-size:2.4873302px;font-style:normal;font-weight:normal;line-height:125%;letter-spacing:0px;word-spacing:0px;fill:#1d1d1d;fill-opacity:1;stroke:none;font-family:Sans"><tspan
         x="-69.795418"
         y="17.029293"
         id="tspan3974"
         style="font-style:normal;font-variant:normal;font-weight:500;font-stretch:normal;text-align:center;text-anchor:middle;fill:#1d1d1d;fill-opacity:1;font-family:Century Schoolbook L;-inkscape-font-specification:Century Schoolbook L Medium">jskieW  jemrhtE</tspan><tspan
         x="-69.795418"
         y="20.138456"
         id="tspan3976"
         style="font-style:normal;font-variant:normal;font-weight:500;font-stretch:normal;text-align:center;text-anchor:middle;fill:#1d1d1d;fill-opacity:1;font-family:Century Schoolbook L;-inkscape-font-specification:Century Schoolbook L Medium">fsA vcxzG</tspan></text>
  </g>
</svg>
